:1000000068FFE2C07BCDE4B1CCAAB1C9F4CB89B919
:10001000CCAAB1C9F4CB89B9E933CF5C51D8671701
:10002000CCAAB1C9F4CB89B9EAEF9930372EE9AB44
:10003000CB8BFE942285BAFFF99DC2727CB1B6CA01
:10004000CCAAB1C9F4CB89B955EB0C39787E2BAA6F
:10005000CCAAB1C9F4CB89B9CCAAB1C9F4CB89B9BE
:10006000CCAAB1C9F4CB89B9384CF3E82F8B305006
:10007000D75DE711650B449B82C57A270236ED09EF
:10008000C4D7E2CF970DF25F081478DCFAEAF0707B
:1000900075F077FB33BD16B8DC69429BDC5EA13C92
:1000A0006C84B4688C1B30AFD0475DD59FD5E6DD3E
:1000B0003E2F7D8E9AC2383EB4D349112161DD694D
:1000C00064EB90B9CAE05F6A821F1128436DCF4C80
:1000D000DD44C109832B99079CD059F0C19E024190
:1000E000F56180443569F293AD77B52042B0A86BD5
:1000F0003E5CF2919A9B3E42200963C1048B73D609
:10010000FCCD6D98475A713DC285208A5D8F747A07
:100110004E09D863258BA200624C8C21811C3C21A6
:100120008B64F9A37D729D28C53AB3C19705B9DCEC
:100130001A297BA8FF97CADBDA586C8A9A2F257098
:10014000D2919479EBD9C5534E0A8F83F08F9C736B
:100150005BD59ADB9D75E195146A6814B26E24CD67
:10016000EE49248FFE682A1C02314612D98E9C8AE1
:100170000A7D194920190F162193FFD4BD4A5373E4
:10018000A812A71D09611AC1B8161E93F1926E2D0F
:10019000D85CCAF8ABA330F2F0EA7EB66F22608C6E
:1001A000944C5F91B2F1D56B78F8F1CBB152D997FD
:1001B00093A44943BD4D63C936872AF2E53F1DC567
:1001C000285426DCFC3B00619EED0535552166ACCC
:1001D00067D6C32909018BD7880FCC37526827F41B
:1001E000DF8BBF6F59A5B7C50300C28BAB9F18E566
:1001F000C296D98184544637BB3449E0D571BFFEDD
:100200001A2AA4FF4A87B1E5F1B67C970E6261BB5A
:100210009D1ECDD70004F30A157778523EC46EEACE
:100220001BC44D5FDDAA4A98F25ECE19E1330D4240
:100230009B675B266760F216268E86752E4E69DFF9
:1002400070A4664EE009D4D234D90FC71B0BC71D6A
:100250003E3FC9E3A30AE8E94AE7D29487E3C483AF
:10026000B2F8D4E3C14F9350746B1A42D840EBBF3D
:10027000E545FD964F6AA64F15A0BF98D2D0A9902C
:100280009BA94A5D2F3380FF007342E1AD790F5186
:100290006105E5640A682D8F312DB5C9CAECA959ED
:1002A000A141488F5ACE2A82E76CDD0FA24B5465DC
:1002B000BF37117F9F18133289FA759397ABE3F715
:1002C0001D5D1617BE35E10B8B3E4D25B7399041AC
:1002D000B4581ACE970E332A007342E1AD790F510C
:1002E000578EA82F12C4339A6D54EB8BEE2BE5CCAE
:1002F000946FD827795413E4381D2770036B601A64
:10030000B6799E2794F2205EC6E5207D19F4F48329
:1003100036465F0A846A597930D2CBFCBC1C8EF514
:1003200065F030DDA772F3AC9FFA0E63C3649FCD16
:10033000CB78D852AA67CAFDF47BB23DCB7A9F4EE8
:10034000007342E1AD790F517FEB1046D875A49050
:10035000A3835C1EEBF3CFB089FA759397ABE3F7F9
:100360008356438F1D9E36D04EFD51865BC4A6A397
:10037000B9F870F8C5D6997574927305E3FEACDCD4
:10038000C5140CDAD40D576FE4A52528BE68167B7A
:10039000919B99D29F74980ECEF9CF091BEAC8158C
:1003A000BB02961B6EE3D2EB7F37DDC81FAB015952
:1003B00098B41EA85048E10DEE76FE1868651F2A15
:1003C0007BE13500BBBF005ACA9102CED2762857D6
:1003D000F6F165E311D88DEE6AA59479535B8262DC
:1003E0009BC61E63B47919ED7F032D1F3D64313127
:1003F00018DEF818B62E287D30DD9BFD4527413CE0
:10040000A1D456E2A04E904D68243A15056C0B938A
:100410000ED4E7BFEBF65BA491110559F99C45B4E6
:1004200062D9872C01C4B7F89BA94A5D2F3380FF9E
:10043000007342E1AD790F51B3576704024C429704
:100440009405A3D548681C3EB627FA19396F7B7C02
:10045000758934F38F66F2EA7BA823B00413B4D213
:10046000B6799E2794F2205E49B9DD085C9181EF50
:1004700087CD3133D2364E6FF6248376D2174C1A9D
:100480006D34BD9850BFBAA06A8678BA3CF4177133
:1004900059C12BD12C7FA3F327F477E051C774C146
:1004A000AE617071FA1EBBB724EAE8D27961258487
:1004B00097A0950767E5DACCE55155D20A9505F185
:1004C000948499744E932807143B9AD7C9537FE9B3
:1004D000AE5592100AA8BF1DA3B26DE972879E5D4A
:1004E000AC8695439C7597D5A7CB0DF7FDB43173BA
:1004F0005B28DD58400B96DBFE317ACF376033C77F
:10050000E5F7CBF265DB87633068232156063E7240
:100510007BD5C55FCEBD78DA80A99D9BBD4BAAAACD
:100520005CA0E029909EEC9991BF5BB02A8B56E9C4
:10053000C46E7C028349F397C5842FB9CCDAEE28C8
:10054000DCC88E6E28519B62DA7B7A990A4761F388
:10055000053BF8BA4FD93B4A9966FD259285EECE08
:1005600004FFC2DAEA7C3989DCBB1D4B6CE69FC90B
:100570002F8893D32A0579BD6E6B806D4481CFDAC5
:10058000D7F0BDB449B9E6931DA95031CB39668C7B
:100590000F5FC225ECF3DAE3A014A896F3E2287803
:1005A0003246344E412A4BF056955332B0B37AE47A
:1005B000B863404518A675E381E577BE0B4E48C287
:1005C000B7BD101311B9D371810B4B9932D33FC30F
:1005D00019E10AAAA5CF8C993B30D5AB13C7C7C97F
:1005E000D2330DD7953C9EE65FB7F8EC1F76F53910
:1005F000FF3A2CD8A2065A5CA31ED010F8EE0AEEE1
:100600007BD5C55FCEBD78DA9BC200C6A27AB5BFE6
:100610008785BF0F38517D2F9FFDEB990006688AB3
:1006200002B103B19881CD99EDCB555BBAEE970A33
:10063000FC7DB35F69A7F7CD0D9750EA3819F23EFC
:100640009A428A7F2A2EE9C85ABCEAFA2581AD115E
:10065000D62759391F1F0E2564414AB070044578CA
:10066000CD7CCD97604A0EBBC8E93855FB1725BD38
:10067000053BF8BA4FD93B4A12F3CC66A23517DCDA
:10068000619108B7589B415E393BFA64D509D4F7AC
:10069000CAECDB99FAB0B6CA91A949C07429A9116C
:1006A000F5F0768F1799EF60CE1A20CBFEFBC88944
:1006B0002B55F509EF4CC0BAFCB9D8F4F5196750C1
:1006C000C8EBEE8DA0D3268F19AD7B40CF6E2413DF
:1006D000E982F8E4FFF7FD7F6A09880917D60A85E1
:1006E0009C8FECF1F9531BB0FB784852A6D77AD314
:1006F000BF3F05B6996F399F78FEDC42E6AEF0DD6C
:10070000ACE00E0F9B38C2944EC8E0BF48D0046CDA
:10071000851F34081A2C7DF6B5CEB9AF3A7840A2C1
:1007200057BFD437F51AD5B5229170EB8799702E43
:10073000678FD105306725AC42F77E6CDFE739075C
:100740008702BA75CC1BF89D2B7ED2427F929E9F6A
:100750008468CE0D2C4AB213B157BEB0179AE79EEB
:10076000678FD105306725ACEFC9230DC9C4BEF131
:10077000CFE590953CE712925BD46BFC9EC69E92AF
:1007800087EFA336220C89913F7D72C8D8FDA18ADC
:10079000DABCFAD70B78E29E8D26D2F97583055D17
:1007A0006D0E0355B1C8C0389C635B0CEEB76ACEC2
:1007B0005E871462AA10286F0EB0EB08719BA874B4
:1007C000011C15D3A0C70C97D592AFE848CCAC86D6
:1007D0006BBB89B71843D5C8AEBB78E91A2CD75381
:1007E000F14D364E9657BF5AB9EE41D4CD2DC38840
:1007F000DBE193A48513013658DAD199F7C62A466E
:10080000A5685A07EDF61F1D3950E4A02D3C10F3E2
:1008100012995B3AA71BD928227B349EE8D0E35477
:10082000736A2C993C9C3D1A312C4DBE0A57FE6AC6
:100830003D004D4959FBCDACB4B06FB5150CC6D7D2
:100840004459AAD5137F6037B698AE3CD5043E878D
:10085000C4AF8367CA91AF35B7DD4EC08C90249684
:10086000445ECA50DEA6F16E78005C72568268A5BE
:100870007BED185A23C5796E8DEBBA09F9FF941AEE
:10088000DE4959C2B5BB62BB4422A4F404EEA17890
:100890001B19A9B1270F49BCA2BAD4637B7885562E
:1008A0003995CC1E4F7976148F324C248A450FC46B
:1008B000AA6DCEBF51BB9A9AD67AC2FDA13C322610
:1008C000A2C12F575C382D68EB45C5EF9459ACA0F9
:1008D00027EE73B32670F95E681B49913E57782363
:1008E000CED259A79B26B152D2113FA377338E0D9A
:1008F000A1742CB10C42CCE8C528A2835D308717C7
:10090000A86B7C54D191E0FDDBC38102FCB9D69089
:10091000AA21BA19E3FCF801C67EE3EA6FF73F7338
:1009200060E7B2A83E877BDA32248AAB60D038FD1C
:1009300034A3A8EFD3573515A2EECCB2DF067B2B3C
:10094000C0E7613176B2C386A28CB860F8E3F633B3
:1009500017AE2D2319A8FF6DC205D8DA43C9922A14
:10096000C8FD59AB81D96B34EFA0F8167C32941ACC
:10097000937DAD09CC335B1B1323EBD11EBB1D6BE9
:1009800076DB72B09FE4071BE23F3A1F466B4BCD0C
:10099000586EECCCA4CDFA5C501B217391D32D8CF6
:1009A000E452B6506A78116F2CCB3D7B55804C6A6F
:1009B000795E17C4AC906CA5B56087665C99448C71
:1009C0006C1BD1FCA32136CC3E2FC6BA5CC0609410
:1009D00003A74914350F2121EC7C1248D4C5FDA290
:1009E000D971D94D665604979ACB2C4FC63763C33D
:1009F0004E54456AB9BDC2A0B56087665C99448C07
:100A00006C1BD1FCA32136CC22A777AB735BD8A596
:100A10002709CF64595820E446AAB50260BCA762F2
:100A2000D971D94D665604979ACB2C4FC63763C3FC
:100A30004E54456AB9BDC2A0B56087665C99448CC6
:100A40006C1BD1FCA32136CCEB9CFB271387B6662D
:100A5000DBAD7E54D1756AE5C876DD108334AA0E0D
:100A6000F58F83C840F848747C9F6111FA0D56CF0A
:100A7000BA9F3AB798C614A03781E75EC272C02801
:100A800000885A89622CA1FE59C08A6C575EF7D043
:100A90000487A7388DA079EA264945FFDEA5E6DC64
:100AA000745B061100FEA3B8CCA6F363CEAB3D3257
:100AB000F6CE5C3E275DAF82ABCC25056B28EB867E
:100AC000EEAAC8D147D44F4BE102975905B5EA29A0
:100AD000CEAC21DBF27A258F16E3C2D58314A4961F
:100AE000D971D94D665604979ACB2C4FC63763C33C
:100AF000AD5782848867D1E612042F48E285695297
:100B00009966FD259285EECEB81C2A1A01D8BCBC88
:100B10007F9212613382D5D13D03FFCD6915A5685F
:100B200085A28C65B1A15C9BA34DC5A5E4A7B28B42
:100B300008A97E656459981A171CE493FC53C68B68
:100B400010914D91ED70D5CDEC3CCAC3EC49B33456
:100B50002D1E15E640630FF932B36EF976132102AC
:100B60004652CBA66F9DDC60FE8D3C4D0DC44B0EF6
:100B7000A81F76BA5CBB08E2C9298E368E6D18B202
:100B8000BE709F2597499CE57A26B4564FD71FB76C
:100B90003A1ACEAA3330C36DD23D9463F93E611C3C
:100BA000B0479E951A5CD6FED971D94D665604970A
:100BB0009ACB2C4FC63763C3B41C39D3C3EE44D38E
:100BC0001DF1784AD0B615D3CC5E21B6DAA06C8E72
:100BD0004502D294DAB41DBCD0513102E44B30242A
:100BE0000C9A755BAE2ACBB4042D32898DE40B3E92
:100BF000369457A9781D3B8428FEC4240CB9ADDF78
:100C00004AA56ABD90EE38FB3F8EA31CDB6A9615A1
:100C1000CC2D8307133F6D19BF8F28FEDD6FD300E6
:100C200076DB72B09FE4071BF61331CD334A1B18F5
:100C300049B46C4302A2376BFA9948EDA9AA019511
:100C400035FC1A50670F1824E924FD267FA6775A31
:100C50004459AAD5137F60375F5EF34F25130B818C
:100C60006A8678BA3CF417715A40C8F2C0D5B118F8
:100C700034361303D96DF077748E7F4198422E5627
:100C80005823AAC1A116194537ED1F4C66DAF8FCA6
:100C900091217188B93CADC85D1580689C889AE245
:100CA00098C82E70CE7E818B17ACCFCB1697E1FE05
:100CB000F61B5D801264F0BDC876DD108334AA0E89
:100CC000F58F83C840F84874150F5461BAA7DF3810
:100CD00088EDAC3DB955E3321AF9007C7CF88AB551
:100CE000FA3257B9661BFDEA102CCF4DA90904FD55
:100CF000115F8C1591CDE3BC44DB4295112794C163
:100D00006DE63A8831F1A107D10C40D0F669596DF2
:100D100097BC251EA62BCB8D15787BD8661ACFDF06
:100D2000C876DD108334AA0EF58F83C840F8487466
:100D300052F741A334C8A03AD233C8AD5463F07619
:100D4000E924FD267FA6775A4459AAD5137F603738
:100D500066C5ED909166DFFF81648D4CDC7496432F
:100D60004B31EAA29B94914D294BFF1A47C15B1569
:100D70009329D33943DB97129EF5FDF58C9D81A213
:100D8000FE02780E82C44D4FDAC31A93526D574457
:100D9000C24929E93336C70BB384CB5E58A3732607
:100DA0000347AE8C3EE72AF8A87AB55171AD1962B7
:100DB00063731E1FB2F1EDFAAD8E405DA9141C23C2
:100DC000441608C8E44402AE16CCDBDAD4EFEA8B52
:100DD000C876DD108334AA0EF58F83C840F84874B6
:100DE000107BD1887DBB903AC97A30E4EA815D6896
:100DF0001883FF9E9F5542BCF647FCB08AA49B59BE
:100E0000B45152F4AF627D3B98D4CA3CEABCB446BC
:100E100067D753EBC1E9E4647837A4005A62B6554A
:100E2000DE10799B7E97259DAD8E405DA9141C2315
:100E3000441608C8E44402AEF3856050BDBC662287
:100E4000C876DD108334AA0EF58F83C840F8487445
:100E5000BF34FCB26AB7BC6A9B19077337BE7316FE
:100E6000BA9FA08007491A32254CE6B8CF72307974
:100E7000F17B58A18C8996E7EDF82B6E8D6AA80A54
:100E80003763B1316D84D7B1C829EBD3A6FEB45214
:100E9000335ED40789376933AF95E916F7D6B3EFD8
:100EA00047C087DAAA90A07D0F880E37259AA3380D
:100EB000E452B6506A78116F5C58EDF00918D32DE2
:100EC0006504EF06F2098FE2BCFDA9DA6B7B2053C3
:100ED0007363974C22F770CF741F9919009413060F
:100EE000342C2055B48309108D498BA4DEE5FEE82F
:100EF000C06FE8F3ABC7ED77D84FF0ECC6C22DB9A1
:100F000004A9AD5B618CC7FB9E4B449061B9A9EF0E
:100F1000BA4EFA6A2B7DA1FB496FC1D01C59AABDFC
:100F20008EE0A57BAFE6968BDDD5DEF303EE514375
:100F3000E6B3AC5B682BCF560FE10330ACC5B918F4
:100F4000C51A40D5F63052163EA8519E7C100D7938
:100F50007384E74F0A43083A18FA9D9603CFA39487
:100F60004B03807F7E8D00BEB6BB12D8D8D3AD7048
:100F7000D4E91F9C5EA554D64434854AD3181E94E8
:100F8000925393A8F128A352B2F7859DF27D40E9D0
:100F90007AA73774EA7AAC1C2F7E3C6C2157244F19
:100FA00010CCC63AF8CF9B82AC1DFA25092866EB17
:100FB000FC702DEC8FF2696B1A54B054510CA2CF17
:100FC000F430571579E6E9DA337E956B10715C2BB6
:100FD00086DCB8D6E55ED6562B88B00F612FF4B804
:100FE000AA50A0AB23B106B31B6B8F0E0D9237A88E
:100FF000D87EB08C1A582E43495672F800FB40A098
:1010000079176FDC47426BC0F2E5443CDD1B2A9345
:10101000EED054171865CD8205A3F3EE86C915C12D
:10102000F06BA76960A01F04292B46F9EAE0F10DD7
:101030008A5012CFFA4254AD9776BCA92A428C96B8
:1010400072CAF43A583E6328C1AE8DFE8D48AAA5F7
:101050009394640486BB74BE3142E9F0C22061D42B
:10106000191340648B8B05D835A0554AF2E60FEF73
:10107000F587C9AE651C7A43287970FC0BF9E072DC
:10108000A50B03D8F489B1BD70949CD041EE37CD47
:10109000246B82CBCDC3959C437F85D28F74304423
:1010A000862BB60D7A57DCD78341BE1E0C5FC64E29
:1010B000310461C7DB77782FE66E1AD95DEDD1E692
:1010C00027D776101C5901BE4AD4ADCC01A370318C
:1010D00096C20353F66B724800A27B848FFBA2FC7E
:1010E000087C050E38C5DC330C2CC2C67DE5A9860C
:1010F00096C20353F66B724891D233B5B2ED2F0E00
:10110000690E7F23B6B0E6260A7EA03B56EA8BC561
:10111000E868C62AEF07F528BEB11E4E8513ABA4BA
:101120002B88B00F612FF4B8E7F3B738608F8525AF
:10113000B75E466BD01B7B6C2AC817BC5C92712DC6
:10114000DF7A0FAE7B18E7214F096103AAE6167517
:10115000BD43630DC1319084AF65CEAFCEBCD639EF
:10116000B80F8E97FE072685864FCBA8006B694F78
:10117000558E66D3F0BDBC08BDA96BF9968F2326AA
:101180004AD4ADCC01A3703196C20353F66B7248BA
:1011900000A27B848FFBA2FC08733EF7A45FEE9B4A
:1011A000E09A095596EFDB9E9DEA41FF9D75C12AA5
:1011B00062887CD17387738ABFCF5C278B633B20A7
:1011C000EF6D118D551D1B722586D3111F0FB46D48
:1011D000361227B8BACFBD9877070CE370B61371F3
:1011E000EB5ADACC28890108FCECCB345527F08A7D
:1011F000455173EE0F5071194A1BCFD24542D54667
:1012000063E963C6F57C0DFE9926A56DD3919B9D80
:101210006A8678BA3CF41771DE2E48D0BD8C51AE88
:10122000F6F822C2B9B61748D5DE8F5DA21A8C5BDC
:1012300087C38898B940EA806425E1192F30665A3F
:1012400047B61805FD61A5FB06B581A73CA2991517
:10125000E7C78CD242B33B645CE4A7C1454C1F9105
:10126000B887C59C1806803B4AE0FADB07245E0578
:101270005257965FEDA0E87C198B4FD937A705D957
:101280005F931F310565173D63033750FB82106183
:10129000EF228420431BAAF607AE9BCB1CF516CE8B
:1012A0007E9A8F0151BDBADE347181472EB0AF1ADC
:1012B0006ADA0E45C8AD958EED45CD645E87246033
:1012C00063DC2E017D584FEF5386019050CA76E4BF
:1012D00024422CA033DB51E4B09E6E1BDAA6862498
:1012E000884F2432044EA56D8A5012CFFA4254AD75
:1012F0007574F2576529F896ABC8F37F0C29EF3562
:1013000011AC3E19A0498FDD5E844850559F7A2E5E
:1013100023EE344FDEBF6CA372E4F1494A4041FF33
:1013200042C19BDB4BE9089CAB2197B7623472AE9C
:10133000E39D739E8A5BE4AF86DCB8D6E55ED65645
:10134000447EFC6B1AE738F0FDCA8917ABB3ECDBBF
:10135000DF060C445B0FDDF33F2A179F2DA86C8A34
:10136000FE292D0028D7823AF2260DD77A7D1C1C43
:10137000BBA69F1D522D782F3142E9F0C22061D4C7
:10138000536BE8138D9BB8B6E74330A5F5D9A32579
:1013900066B13A16832E6291C68825BC6EEAC5E016
:1013A0003663C5654C49BAE95668A1C123C38C614F
:1013B00013922C0A58CE2750BF611D167A980F86BB
:1013C000AE4D1E50A0687AE0B09E9FAD7BB9150867
:1013D000DE2DF3117EEEAAAF3182442AB2A918BFE6
:1013E0004F6CFA52B3E3D7D1EB45C5EF9459ACA09B
:1013F000191340648B8B05D82C30635BBCE51B3420
:1014000030426E415A84FB33A0105DCC3CD315872B
:101410003353B1B249C6992661E13CE1584768F2BD
:10142000E341FF4AC5AEF04C23422108D61FC795C1
:10143000DE44407E4BD46199F1CAD28C2B3417E83C
:101440001413D3A819D7CE79D6451C90B3CA44102B
:101450003E070E29CD4097E26A6080BE224EA3E58A
:101460002F95297F199A44CF86BFF554AF24482A77
:1014700037AA1F5198B64DCC2AF14190D1E20A28E3
:101480006B33D666E326F2BB513F18299CF30ACC96
:1014900007895CC3DEBF5F928CD7CC46D8FCE25D87
:1014A00040E6DEC73158E14B314FEC430A503CD89F
:1014B0008071377008FA86B2B9BFDEE2DA170877B2
:1014C000EB775C5AFF410E108197C1CF855C903855
:1014D000FD90E9B691A7B1DD7E9A8F0151BDBADECC
:1014E0002E64C1803CCE065071044DD1E7BB95B847
:1014F000A537808251094B43277226345586E193E4
:10150000EBA7AC27239B79048A95ED5F1216CE0CCE
:101510002F0C285113023E39629EA59904741B0CAE
:10152000D813C8F2FBB5B617B84228D29E15A960E9
:1015300003FE268E638151B3460E565B29E958920D
:1015400068451FD65F3E4EB5129654C0010E3483D7
:1015500012F7000D9AE7CBED503CE8B9B93251448F
:10156000C02EA9F7D7C50ACA5135DB290FFE8C60FA
:101570006A9D326879B51F888C43A196C692B87E61
:101580001CD933B24FC9E5DCACB6E750157B819B63
:10159000B46E11BD02AD45722C5CCB9B4BDFAB84AE
:1015A000F9F9DD93C244DFEFF073F1A2DB6101557D
:1015B000850C47D5BBD8BAFB04F508C6B6FCB18B81
:1015C00086D158B16576147A1714DA0AB9F1E0AC0D
:1015D000B414D9F7BA158AC20402D78F4FD850DF96
:1015E000623C77FC18497C77ABD4271DE58DD8D1B8
:1015F0001BE14CDCC196B81D25D1C50548B2277D3D
:10160000FF611D1136417BA4CB0C1374467BC118BE
:1016100084C11CAF7AC8E61470DEEF685EE65871CC
:10162000406694486777A014EA87EF357E43EA4224
:10163000E8A4346D824D31267DAD7A62D03B77BE11
:10164000B5272D808094F93E00BF92C39F4E8E6DCA
:101650000C3F1341E3F67DC5A2C12F575C382D68BE
:10166000B77335C9138A21CE5DBF4044E3A1E62399
:10167000BBA69F1D522D782F603D9260D95CCC9007
:10168000057D6A7A11323EB96A1DE1A5E79EF9DB54
:1016900095E294F9FFD3C442BF27EF908B097B8773
:1016A0003D087B73AA40EBF43B9E4866C9B2BD502F
:1016B0003E21D867B8EC13D995E0189EB948FEF4DE
:1016C0000C58838BB837FAA94815215E50F1EC1FEE
:1016D000C1F83870D52CF95594D60F7ACCB2BCF13C
:1016E00030D6E8C08EF6436BEA6CB11B4728FFE4A6
:1016F0008A765E14A4C08D34BEFD543F52CB3B9419
:10170000B6ADABD73E6E38A8CF4EFDA4DE03635115
:101710008D28833E6A7CD49B088519A588E8FDC97D
:10172000FE7D16204CE7830B98F28CE3AC7C5BA328
:10173000379540D04740F8F3903A8693E1114F4BEC
:10174000ECAA47821B43846FB067285A8B0D4F8FDA
:1017500048D5A395ADACA4F260E7C4BED4FF210D7B
:10176000E924FD267FA6775A298070C3F54D694488
:10177000D498EF9DCF0CA5A9EB6556FF55FBD292EF
:10178000BD36798463A14D7D4220AFF796E80EA463
:10179000E7EE5799B83E14A1DDA43937F7F6C6B382
:1017A0003D1C7340609FFFFEF11213DB26DD80625B
:1017B00060E2A3D4848535CCCD4C373739D644A8E4
:1017C000C7069ABBF7C740D36E5847139CBCC24AA2
:1017D00040E959214566161EFCB4D4537E40B8BC7E
:1017E000D73BBBA19FF0EAC882067E0D4D8DC3C3D7
:1017F000C7664BC1C37FDADAD41E83022F39ABD65A
:10180000F50559B5EAAAB1A55F308F7CEB95654B1C
:10181000E22B74025C888C8627D8E1D05E7B95A190
:101820009EFFE658FF7607AC8891519B8A79EE04BB
:10183000B18CA2421124F5F367870F096C16170CBF
:10184000960823D179FC8B40B3D5E91298B89D1640
:10185000B69A8A9DAE3217B0E2F00456A6A096B9A9
:1018600024591467798D8509E159AF96C48E488A49
:10187000FE3B3411DCB296F54EBF726A9EDFB38335
:1018800039211AA9C803EDF9807894ADC4780865A8
:10189000D4DA99C9A70A15FB4B8BF196D5CFFD5F1A
:1018A000BD4453D19C6F7E07DAC063CEFC82FCFA44
:1018B000104598227A73E38D87D8A0E40C5843AC86
:1018C00090DD024DDBBEB91D042D39EAC6CDCA49F3
:1018D000436A7972A0A813DC4AA5608B0101F72145
:1018E000B7B7841F73C5F95A95AE2ED57C167654BA
:1018F00074345C7982F7D8CFBCD1F59BC04E965634
:10190000019EDCC3E9DA523E4D7B6E67580133C15C
:1019100055BFA872B47718E1F3E6255EDBACCD8C39
:10192000C59EDC962DBBDE5EB6063434428DC7DA2A
:1019300018DE7306CB4E03DDA5B81A575E72E1DDE3
:101940006B2BD4E8480E51A38ADB361A2CEEC73A2B
:101950009A0E1410DCB077B35870FF104B4E04850C
:10196000B8A2AE595602ED635A14B211BC4506B581
:10197000CCD4B27C034AE08D3B04F772023351D0E1
:10198000BCD1F59BC04E96568F298B9DE19D76B1BB
:101990006B00816CE85DA2BD64DE90405669003D3D
:1019A000B5DD24F137A5F13D8D14FC73A8A3ACCAB5
:1019B0004915B9123522727280EFF968899DD2B843
:1019C00074A0B6772592302D46EFA3B37450DCBCDB
:1019D000BCD1F59BC04E9656BDD8F9D7838F038DE9
:1019E0000347AE8C3EE72AF86192AD2D3A35AF221F
:1019F0008F018D29E317C6B555A102AFEC73CC4416
:101A000011CC1918EA6174B06D65A2CE4D84ADA0F9
:101A1000AEEF4801B10F1E7944671EEFDB0C94FB5B
:101A2000A382629122CF3D7D03FAE562957FB33FA9
:101A3000AF98D355CB9858A443ED30246069EE0B92
:101A40002CF6F7A908B0CAEAA244A0119F99C3587E
:101A500024FC2BDF14CA5F1BB4A35E942C20F6D8A1
:101A6000199B367E938F546C095F6B9C5C68A0BF9A
:101A70000F3300A97246AE5E8BCEF83E907A600BB3
:101A8000222621C1BF754815FEC625D86FE1A6A53F
:101A9000A08CA350F409AE393B890B05129F4EE48C
:101AA0004E807ADD81D0CBBB4D3167AE8EA3FEE791
:101AB000CFAA9406404189C77885D8B68803E0F557
:101AC0001EB1DFFBDEB8DDD2BF208E015D5534DCF8
:101AD0004C3BC8BF6005AD1B76E8654F56F1280B3F
:101AE0008A8CA952F48AA80CC57D1CCB21891C5D67
:101AF00038D9C0378624BD0997496C416D1B02D087
:101B00004F170830F794E288A53F60BE9DC75E423C
:101B1000FA228ADD5BE4F3F2D2367DF204CDF61EC2
:101B20006DB5885BC272499277578B9CB606134C91
:101B300086B8EC661B18520D2721FDDB3DFE506C6C
:101B4000C499653D151049654334C9E20B7ECA2826
:101B5000FBB5EFF78850EBB52EE74AAC516E101A83
:101B6000FB61008389EA2A7AAD92BBD5FCEA222088
:101B7000A97C3F4E8A5740DF2BFE76FD528D2E64A6
:101B80000BBEA162B3A3F8CB5C7F0184271F34197D
:101B90006B120A489384B54CE924FD267FA6775A38
:101BA00066AE960EC193D3A4DB5A2F8FD72D476311
:101BB0005E888790F550D4E38B11EC9AF7C6463BCC
:101BC00022FBE3A44E521169B5383C2E93ACD47F6E
:101BD000C29EAA5650FA3729D831F2128B17C5E6A1
:101BE000CCF3AAB995B65211CEA91C0FFE30C7117D
:101BF000AEC132B420C05F321FA1CA1CF587CBC46E
:101C00002ECD7A28B3F004D1C29EAA5650FA3729B5
:101C100034475C61346C296C357D34EDE66345BA3C
:101C2000CF50057D32E256DE27C503DFAEBAFB1F7B
:101C3000E1B1B9E13B04E42B267234BFC8FA77ADB9
:101C400027D45DF0394A723D90AE4F35428774AA71
:101C50007FD343FE44249D1643858E8EBFB850F437
:101C6000FF817E4FDE71A611DDC9C14D971E6D79D2
:101C7000E1B1B9E13B04E42B267234BFC8FA77AD79
:101C800027D45DF0394A723D90AE4F35428774AA31
:101C9000E1B2F7287A52E457DE6712077AA52F5887
:101CA0000BA2DFB6C1D3387E6173D82028B5EC8E85
:101CB000B6D0C4DE631D3C8826B6E8A2FAAEC3B82F
:101CC00016E94001DD8785E66746E81B77FCBB1611
:101CD0005C86C5CFF4DB5EC453BEAB6924904E94E2
:101CE0005690F9AD654A57F5270BADCECAF7D2D459
:101CF00011430E5EA1DD686795F11D97605FB4C169
:101D0000F4ABD1AA237D753FB079426815300F0B33
:101D100078799788B2CB1F0EB6671EE9C3B2B7B504
:101D2000B70302CD105140737F0F52371882FA8FDC
:101D3000636287F70B19E45D2769E8AD69115F04F9
:101D400007AE9BCB1CF516CE9724A4326617A5C10F
:101D5000A6F0EDAECDECA3A8CC76AE72FB471F5F2C
:101D600058430C8E7ACD51DFE57616BCDCAE694F58
:101D70008377B30CEB2CEF33D682AC87FFFD7A1A56
:101D80008AFF3CD3ECC58AE9EFA0499C1E9B868C58
:101D9000CCF62184F7D80D2190F97DE331FB98C072
:101DA00096A6C9944E7631866A9A7E6371199E14FE
:101DB000C3CE02349F72FEE670314C3CCD5F3A1DBB
:101DC0005C6C6460AE1609123F7040A61BEB652583
:101DD000572B4413BAC68C3E6DC88EBEDDF7C9447E
:101DE000B4F89CFEAC90EDB57A096C6101978889D6
:101DF0002710C6C74080D8B515B79394F7ECDBC55C
:101E000077FB3BB73EE0F22652B80DBD429D82D231
:101E1000ADD16C01F3F855E4C848DA7BF5E47DF800
:101E2000D8C4B507E88527324B6F72C809E4719CA6
:101E3000B1F46CEE099837CD9C90927B11C9804526
:101E40009850F88C569FD711DC1C85E37BF534291C
:101E500051195DD9146DF82F38D75FC150BBCB072E
:101E60007408FA1221090B1DBDAB9F1AC359D69BEA
:101E700078A7777FE5CB18AE3DF9A2AF74D4F3997C
:101E80002AF67C556B4EF41BDA72A5A3BED8DE5A37
:101E9000305E84B34FEF56344821E6335121A1CD53
:101EA00014BF1A6F92D4F587606E19178F9C84BD8A
:101EB000CCAE72747DB20D1E6A4430ACAB6935E0B5
:101EC000FB59864391ACF7BF9DDFF446B910FF88FC
:101ED0006A1BF8D41ECB889C3DF2299175DA9919BA
:101EE0002E39B5684291B0E897DA024BAF96A8F95F
:101EF0008AE214CA990C3E4A4F9C5BFEE4D65C050C
:101F0000557D93B361AF0DFF6A4822F8061DD07C62
:101F1000CFC5BA41DB0EACB543FC4E58DCD23B76A4
:101F2000F2C1B034EE2490586C215BE22EB1839163
:101F30008785BF0F38517D2FD5FA8AD4422B81E097
:101F4000F92C65857612DC016418BBEA479D84C0D4
:101F5000D8AC0B6BCD1416EC636FE899212619A150
:101F600023D7E3C5BA13FB126A55A8FE27231976B7
:101F70000C9A755BAE2ACBB4A30DE090C277E682D3
:101F80001F2B37B5D8CE4EDCE6FA5CF585E667390F
:101F9000CA561F8B026E81115209F4F83C0E10478D
:101FA000A283AF6E95CC226F864D036CF512AA56B4
:101FB000E5CCEED964836087E55FCD5DA9F4B89A7E
:101FC000D8BA840F907F417BF574195ADFD87BC350
:101FD00070EDAE7123B5376EE924FD267FA6775AE2
:101FE0004459AAD5137F6037281875DB193BCFFCFD
:101FF000F6C7355F1D7C32C0256C1E74F16C997379
:1020000050BC5384C7C987941BD9D08AE9F297B9C9
:10201000209E68A52FAC81FA60CC8ECCD209042D0D
:1020200055478E78654A8A9325B5C4A6FCE92E7C6F
:102030009E594A9986AA10CC6233C725C3A9D2A457
:1020400021C1F74E831763E72C6741EF2D874DE9D8
:10205000DB881361CFDCF8C340CCBE22D94404D561
:102060000584924A61A346E8980E8B115A627C67F8
:10207000BCCDC5A7747FEF840CA373147176E9E41B
:102080006EC6D107B355997DDA4DCFF2079F39E37C
:102090008D10B038F20C6E4FEC334D325548129221
:1020A000DC0893584E1DB260C28A140F8BD29EE793
:1020B000EE56AFB68AC13BCB89991229DDF2C95FD2
:1020C000B0C85421956F182060D92495CD4295252C
:1020D0005CDDB744F11D2E05D46E5AF973DF4AB1A9
:1020E000FA2299D6863DF236689FDBD7510F54907D
:1020F000F0A93FA2D33DB66C2DC1922DC22FA928C5
:102100000F8C72AB5ADEF9CC6053ED40DA38F91E11
:1021100069DBBDDDFE4007D42558CC6277668BB8FD
:102120004002580827B7B06D7008973DD7F05A7E27
:102130000C620587609B457EA450751335A1710A1A
:102140007CF4DFA42452BD52E7EE7228A8BC450DF2
:10215000CC84F4E8A6E371D71651568C16A410CFA0
:102160008041218C0DCC701CEB9E4399E13B94E6A1
:102170007A1F223DE2D71E800A69B70BBA28A4F362
:102180008E58AEAE67B5933D7C9A30EA4B00E7853A
:10219000D2B2BBFF421E673C6CD1EAA91CA4D9FC99
:1021A000F677F627049FDD50D41916D6A980308D16
:1021B0004470CF65F554CDC7D2AAAB8C254180932E
:1021C00039043667A261676D560EE7F4E8C03F82B6
:1021D00099BF9DD8D67425F637C07D23375728C9B7
:1021E000B2274F475F5FEA36772997DF3B593AF0CE
:1021F0003D8EDE3E2BDD4A7789FA759397ABE3F788
:102200009F8F2EFE7D9614E878D2A54324F6524582
:1022100069B107F00E358263277D3C89C0BF9DE31D
:1022200017FA72D748C6132FEC259AB6A9476F78CC
:102230000C9A755BAE2ACBB4C0C8EC6E6910455ED3
:10224000E17C1643C3171586C7A18500517C3ABAB5
:10225000EBC057D89D51152A59664C32B0F7B4BA25
:10226000D6E81684AFC5ECE71A05A3ABE0128C19CB
:10227000913B2965D2847650F61D44EB0CDA2C5E36
:10228000AE43B414D5B8D932A7F0D45218D3F8FC61
:102290007DD97216BFEA39B61A95033A3110289AD9
:1022A0000943763CCDBA92CA484FD42FC3DD2E8461
:1022B000FB35F9D5388A4D55049AFA4E895E953129
:1022C000F3F047A96754336630C077263A0591503A
:1022D000E076EFA612E9A460BB96C9B19B003C244E
:1022E0003AF24659A1E4467C9966FD259285EECEE8
:1022F000888A7D781841F45A5A6CFB6C8EB8EE4689
:10230000D3A9DFF4DAAC10F628EDF08213025615EB
:10231000CAB37DCBFAB966546DF649D7B679A90828
:10232000794953A8C47683ACA46E3B1DE5D4A32899
:10233000D7F57E4EFAC085D52C40128B7948590BC3
:1023400049392D771C9E9EB739564F66462E00C1DF
:10235000E02B3615E91B76F46F205B68C92733E65E
:102360001EBB9D12C4E1796E5BEC5E83E942F5D041
:1023700087495A5AEB2B0325260A8F686D1AF6C136
:102380009360311DC3355CE2EF636D0A86D8C76583
:10239000CBF77A90D72C6FD8D79E77D387A5DA144E
:1023A00017B0959043D9E0C67A6B11940AD0009C7F
:1023B000BD6B126CD63E22C918ACAF4DDB34B4A550
:1023C0002CAC2AA032FD551F042335BD255F632C9C
:1023D00052E2F7623555442811A4DDEBAA07BDB1DE
:1023E00027E3EBFAE2A03F62C8A460BC81D10C30C5
:1023F0000888FF17D8B56D26C32179990703BC5902
:1024000088E5789FC023152B63490090B175CD43B3
:102410007E43779264026192817D762F4A98B6BBA3
:10242000C69C33252DF0834D97645A3EFB51E61B25
:102430006A8678BA3CF41771B414D9F7BA158AC20F
:102440000402D78F4FD850DF4C8DE89CB7412883CA
:10245000D953DA98C3445E4C3B6AEC08C71470CA7F
:10246000821C439202839642D8F45132256BD45D8C
:10247000334AA72D625B97D1B9744655BD59EE2EEC
:10248000C8091AABFBDA9C2B397CA14EB84C11322F
:1024900044D5F83C5B41F3901A01D5681BDD09F87F
:1024A0005056C490A4B3AA17D891F4F8EE3AF85055
:1024B00065180E46B9D29ED2766970C4889F54F0D2
:1024C000D8CAECDEC644DF790A86159EDE2F82DC90
:1024D000D427D01B6141A9420BB5B2256DF089E725
:1024E0002D5A4728E09217AFB10FE8374B6297F8A3
:1024F0009966FD259285EECE73DFF8C0B7C1D75F30
:1025000089F1DB843955CA293C470904E3993670BF
:10251000CDFDD79A9EE76D260B5F25CB21EBBA192F
:10252000F8D71DD9804F1B2741F2AF389E1BDCA87E
:10253000AABB5F34E2AD9265651B913B1E79B93C45
:10254000E7700B23A1A31F1952F06CB87ED29FE154
:10255000D1C7E75663E21453144C0042073A18A55A
:1025600050C0F56BC4A1E53B7BFA6BA7AD8B240C87
:10257000FDBAD02CE608431395C488960A14269415
:10258000317E82BA8116C159319C718713EC532771
:10259000060CDCDA02B5711AE8DD04D41AF995B636
:1025A000036A6E8660558BD376B04116829E29D71A
:1025B000B53B42679530B24ED0309FE8FD4ED48592
:1025C00055786AAE96145B38C943BCF75747A21BCF
:1025D00047A0F3C4D024F8C646FFFDB7E0B003E23D
:1025E0006617EF5899F4CF0DEF721E5A54E8399ED2
:1025F00052E2F7623555442877780BB9328546ACFC
:10260000B11DDE4BF3FFC01D132219E3A6206E237C
:10261000916DA7651ABD7E5BF27704ABAA309E74FC
:10262000A501B5EFD2675A4A896C7E69CF4AE4B1F9
:10263000DA3B578887EE4F44FCCEE2DC37835DCF30
:10264000FA8ACE138C3BF7F1EAC69AC5FC05005C0A
:10265000AD6940EE9A656F87C52B8F602680676CE9
:102660005496ECBEC803EE89A84BFE81CCB298C448
:1026700015EA4743122E13568A31290C7DA970336F
:102680001A015CE1087D120C6F6DC63C46D16C3AB4
:102690004DAE2BA3BF3258498FB8ADD4F02F878EE3
:1026A0001437578366F2C8072888A50B200F79E9ED
:1026B0000C0999B6B0AC28D6331408723965E8A96C
:1026C0007E060AEDD34939B864E1067352E0E60F9D
:1026D0004BE0271645EC9B1B63D93BABD4D297F25A
:1026E0002EFB134325CDFBEAC9F171063F9CFA0589
:1026F000262AA1825E737392DA3B8E7334E4CFC6CE
:10270000C3032FFF04037946500D0C21C1E149A0FA
:1027100086689B46365CF646A5F1582B31EF4BA4F4
:102720008E5D7ADA37E9AD0A66ADABC38602D92988
:10273000796BF6C4BFB8DDD19AC843509A559776E5
:10274000019EDCC3E9DA523E6F77ADBE1D1EB31F9A
:1027500020D561D7AF0D3C023FE746B20BE46A4596
:102760003FD4191639D648455A044E37C7FE009251
:10277000B2E1DCB662DCC8353BE78856FF60C2A038
:1027800050F41687BBE547CE3A287288E5DB31B6B0
:102790004376C51E90CFF927C0C8EC6E6910455E20
:1027A000A9B2DA8A00E16AFF2FDAE332F24ED246AA
:1027B000626ADD3633689A34F6AB9F216DD24B5B8B
:1027C000C81E94C6C7ADEC2F2486E4386CE6DCCC7A
:1027D0005DC5B68463A0254BC0C8EC6E6910455E2C
:1027E000D5B62FF77CFE8B0F9CB7E5E2C94084DF9E
:1027F0007B5366FD4DD19EF0A80A745201FC1CABC0
:10280000A9A75C6513E1C764EF4EC37B71FB2C463F
:102810006DEB5FB99AF63E7D8C19B5FE74CBBD6742
:10282000B9189A21845D79A5E924FD267FA6775AF7
:10283000DF9E4AF0D7178A742477E5C5C06AD63080
:10284000E2652E2D519239F159C08A6C575EF7D04E
:10285000F50D67AFE9967BDACA8A2D546417DB025F
:102860003C199F438EB8C13436EF9F72E42F787BBA
:102870008FBE72E54E5E28B37D6EFBC505732A568A
:102880008F1C4D1F6A996F415809A9A7B7A6F8AACE
:1028900008D5BC2D6BF6FCF692DD2AA5CD061DEE03
:1028A00099D3AC970C975A732249132CDCD4B69564
:1028B000D613275753960F64E4C2FB12892A09F5F1
:1028C00032F901C0298415972086E2CE2EE958CA34
:1028D0000DE426A523840A0A26D105D3EB715CE812
:1028E0002F5DA28331E168770EB0EB08719BA8746D
:1028F0006715E56F6DD03CBCA94B9E788492EBFACE
:10290000C5BC648A4FA8D62154AAA34A126467455D
:10291000C5B93E86761F7EC34F30A0A53E17489EA0
:102920004F7B0494D7C8F50340A7C76F19D449F764
:102930000CA7DA6EE532C6BD0712D45F5EC42F78ED
:1029400092D49E5D695851F9A03C5E86230420F420
:1029500007AE9BCB1CF516CE0CEE77838069B11BBE
:10296000115AE50F7A8E86963056A065595F882CED
:10297000F511D24B508063F9861FAB91E684F49435
:1029800006FC34D1E8935E7E066A11DD6A61523E30
:10299000019EDCC3E9DA523E804BC9EA9612301739
:1029A0009A757B3B18A7AFA17AE5FE3AE3A71756C5
:1029B0008B606F6EF80B2C9ABE33EF658584B3681D
:1029C0006ABD3D77772C77E873E9BF377E09F20857
:1029D0001B1AA20875F58B0B7FD4EF6FC66ED62F2E
:1029E00006BE1ACCEB579D96BDD11102F68F203D45
:1029F000E6A3E34A3EC283CB30C6349E86EE1FACCC
:102A0000F3305C1D7B7AF672D1D8308D6B70B0FEDE
:102A1000022F35EB0B256DB31ECC4CAA277EB65387
:102A20001646AB596D3B448EA0DB354448287128CF
:102A300029CBFAD01A35767D1F4FB063F8B11269F1
:102A400038EF0E584263DB93E73451176887B09034
:102A50005580A0EE0D868BB0D3A1F380F6698F79F7
:102A60009D864B27BE8EF3778A0970302B40F0EE9F
:102A7000EFBFBDD675D558BF6B68696614EA1B6198
:102A8000777819FAB34F7518BA0B79EAAB31B512EA
:102A90006D72630DEBEC17C02CE7EF622CE5EAC812
:102AA000BD798CE19A8FFC00AAC0C9DFE5D83B5301
:102AB000DA35DFF0734694C094CADDDF2EEA2FFECC
:102AC000E553CE4079FBE47187091E2F588EBFAEC7
:102AD0005E41E20535A31A2EEB44310414925B39B2
:102AE000FC8C5AF02B53C2B9E1BF88E265FDC031BE
:102AF000FD9A4439CF6535CA1CA8EE9A8AD98B2233
:102B000044B44E76F1EE9DF3B7CD2A51A4A1EB82E9
:102B10007AE5FE3AE3A71756AE9980995287AEF54B
:102B20005C0183A9E1BF22F7FBCD9DFEBA1EB12255
:102B30008C16CA2D4891E0E1CBEA2CFBB8A9AE284F
:102B4000110C26C79EEF63A72254B507F300FE00C1
:102B5000B95A8D4CA7E5B667CA6655942DF03E313B
:102B6000CBEA2CFBB8A9AE2865144387DDECB51B76
:102B70002BA16782923FDF207629F38DF9170F3161
:102B800005F29BC8588B81521449131CD98B9C8722
:102B9000BFF7775D484CF61DCAA1FF5E4F94820CCB
:102BA000679EBD7F2387841FE735CA825501C19B7D
:102BB000B7E8CE4A061801431954E0CE9291B6DD2B
:102BC000B4CA4FB9E699284F88A983BE8389BD024C
:102BD00034B5DBED2F915D3E63027D3543B60818B9
:102BE000CC2BEDAD881866F28981135180AA32187A
:102BF00016488388E5BF670C019EDCC3E9DA523EC4
:102C0000CD1B486ECD26EF25A16EA6C7E7C5B377CD
:102C1000BB4813D540705D5F77BBEAC12591690061
:102C2000312AC998AF74C82B9CB211526E54067CDD
:102C3000107914672B9B60D0B5417C2D30AC84A5F6
:102C4000DDEFA34BAC38E020A3FF5CCEE31D559035
:102C50009FADE00B4CA890307A6EC7C88309A6CA16
:102C60005B3CD22F7B99F5E4434A94152B6C00EF23
:102C7000257F6A251D8D017CAF273EC676028E8D8D
:102C8000BCA7C1AA63DC66428FD3BDD08BD4D28DE2
:102C9000008CA6953D9BC0C30CF6BACA145DB985DD
:102CA000563BAF6E7BB2E3CC76E21F80C600BE8798
:102CB000821BA33ABC6A14F65B9403D21DE440C4A1
:102CC0004F1D0211B15D7E2DC85DB7780B5E656248
:102CD0009F82A59FACCF25A5C6EB2D8D765F8EADCF
:102CE0001A10D4281117245FC8AF819F09CDE4586A
:102CF000018A6BFBC0711AE3FCDBD20B2EF3C0DA46
:102D0000C10903D4ED292EE802434EBA6590396615
:102D10007F8C5D3E77AF6EA715464355524416E74C
:102D2000749F4D7A10E68B80326B8F73A4CA18861D
:102D3000CD52E9A9CD95C924CEAE57FB79436FC1D9
:102D4000F00CC57BC8BB2479C22EB9CC8A9EC38A3D
:102D5000375BC0B8F7B2063A3A9442E2C1678EA533
:102D600059B0D7BD2BF566853455A243FF2AF4E34D
:102D7000DC5501B4FB7EB79FE41723AF98C728C08A
:102D8000F40A506141437E4AE6DD2B53C50F4A5B8E
:102D9000EFB64F55982FA6618A482928727CF54CCA
:102DA0003DE1CF1FD01D0772165052C26D1A998691
:102DB00031D6498DDFECB2F52701A3C42264E7DEEA
:102DC0005E75EED3728DF18BC6B92B05CAD3B2E90D
:102DD0005B034CB7F8DA0520E9F6B51A1E30B201EC
:102DE000587577798B68C1B4E924FD267FA6775A98
:102DF0000E01F43F451566663531B71C5D8703D873
:102E00004EAA3AAFC633B075A2C9DE12350754DFF9
:102E10005F9FCDC0EB3A99AF34706BBA453BE66229
:102E2000D3813DC295EA8AD17BF23D301EFFB78344
:102E3000D9C373A4B48C28CAF8C1DABAC44E50D32B
:102E40008EFFA9E537787DDA1642341517CE2A3F72
:102E50008E82BE09CC356BB564ABA8B45A156D36FD
:102E60005280CE8D7A3B3F4888732F20E77AAA2084
:102E700003C150ACFBE7643D1E0A52C7412274886F
:102E800007AE9BCB1CF516CE5764B5B2AE913BFA9C
:102E9000439832F9E0B76C412A8EF642CE0B8F9BF5
:102EA000A6AD6C615F36991012ED13BD50D97FF657
:102EB0005B59BD53F458036807AE9BCB1CF516CE87
:102EC0009DEB816935FDFAC6664F6BE9626584BC8E
:102ED000B0A1302AE58B0552F8062D3CC457593372
:102EE000972EA0D4A820AB9ACAE9AEC63F0C874063
:102EF00027CB31540367966AB15B170A9FB44FA280
:102F00002CA33C3A5282FC48BA3AF8E53B38D3A4A9
:102F100021225995B2139BDF6CD637540FE09B49A1
:102F20006765D001BDC9DC8F6F71AB4FA7D879370A
:102F300071CB900090691547193F77BAF83A5DE474
:102F40004321233E8E741143682A0EE184E62286D3
:102F50001E7D532F8CA468F69D5A45185EE815B067
:102F6000CC0397F051C570FEFC0B06A5A8351402E2
:102F700089FA759397ABE3F71A58C9037B599BFFFE
:102F80009625FEC72FC9B6E678134308588BB4556B
:102F90001A11A106FE0D126089FA759397ABE3F73B
:102FA00019BE4C53E95ECAA946B906C880EC75D370
:102FB00015C900741DB8F24293C3844600E1075955
:102FC00078AAAF527756B897FAF25092BC60E025D3
:102FD000F5E045126C1BF87066D8150FA07585E4F6
:102FE0001B8668570CD477A514333576AFCF695656
:102FF000D37211434D55D6A01154DE56BC1E2EBAC5
:10300000D7F8EBC7FDE2321C2E06092334DD60261B
:10301000467DD324876BAB42DB98A3B93E69C508D4
:1030200080936AB81AC8CEB1158C04ECAFA139EC04
:1030300089647959977FB1C96063E372AD08D03B69
:10304000879F43D639FDA8D9E62DA2C37A984105BA
:10305000D8BAA17AFD3D6B188E3C63D9ECB6E84D29
:10306000F882E79A5160982BDD169C952EA307C82D
:10307000E2FAC00486DCFE7DBCE3EDBC5886DA379C
:10308000C96302B341B9B57FC259C7B73C7B5896F3
:10309000C6AEF05272DB9CBE596EB550E631E36CA1
:1030A000E5CCEED9648360876E43A7054070318B11
:1030B0007FDEC4753C7B23263FBB98A7578C5F39C6
:1030C00092E7BB44C2E12044040119D9B5133F166D
:1030D000700886DE988E9009C145118F832F20B627
:1030E000C1BC7CA3284CACCFFC5195281FB893D20F
:1030F000DE0C320DD0F7BCBD2870E38F13FA0CF84C
:10310000BCF6BF570407B96A8785BF0F38517D2FBA
:10311000609AC4B7453344D7081C7DC11C21FA7B93
:1031200021E519183F01C93454CA4B1C306B44398E
:1031300077B2A418CAF989A104C07095E632A01527
:1031400047693B174B95B72159C08A6C575EF7D03A
:10315000A863FDCEEAF39420E4E318452054217FD0
:103160000E566EF0B8FB905333F359E5DD23517ED4
:10317000271DEF23D1040B4B24D18B07EE6F0DB726
:103180003781E75EC272C0285662259F85B8A516B2
:103190007B30F65F2F3AE4BE5FA31677E88787554A
:1031A000E96C18EC3CFC7221B08ED06480FAD096A9
:1031B0000612CC861325DE9517CC8E3303B0464F0E
:1031C0001FC86B7ED7F995312D4C545796F7833134
:1031D0008FCFB6AEAB69C433823897A021587CC775
:1031E0002DF37E30515B1DF1245341870CF99C2E49
:1031F00009AB8A7D24DA810D83A7CE8234DFCD949A
:10320000524634B9A1E635D376F544F1C7E80FBA92
:10321000C8966BC18DBFD33E87CB9585FD7E6B9ADB
:103220003816B3C092C2C6A9C718DC30CDA4CA6B89
:10323000800B7495B67230B188D8B48D6B3831403C
:103240004F9812B9EF5599AD3A10C3AD14B5783B0C
:10325000473DA58149AFCDF6C38E496971A98FD984
:10326000BBF6B3F00F2D627E7693EB6F931FD9768A
:1032700006175506A3E892CD8420085C4653DBBAB6
:10328000A36F08357EA03A17503CC23658866EF1BF
:103290002ED03610DDD277059C635B0CEEB76ACE7C
:1032A0005E871462AA10286FFE57C012606AC04879
:1032B0009EFED8CD647B855C41442B86723BA6EF95
:1032C000DD1EBD89E643784132B15ABD03E1768DFA
:1032D00014815C3239F364FF6912FC894345FD1A9D
:1032E00005AA02B7F99DB511BB380221FE0407F902
:1032F000498295C16DAFE3CF05A08EA08B416EF7DB
:10330000D8D8EC87546E6DBF4AB010AA5A50B71B7C
:103310004B3ABD8CC7C6EA3F2700EED62A14E1A17E
:103320004459AAD5137F6037B698AE3CD5043E8782
:103330009C635B0CEEB76ACE5E871462AA10286F9E
:1033400077CB69166A15EE49156EB98012BC49C96A
:10335000894CD070CE2EC8DF96C6CB172FE226A799
:10336000DD17444D00EEE7295D4BB7FE7D11A8093E
:10337000DA823D1D58BFB8F648C06A5D574D0C4E05
:1033800069E89575CE5C7F41A9A95C143E14E98279
:103390008C655DBD20F11767A5B6E60D6EA1BFD4A3
:1033A00021B681A2FA2C06199A90BB518C7DD59F2B
:1033B000BA8B794D77A8300908C02444243B09E52D
:1033C00063D38AC2540F8A52F64050692831989AC2
:1033D0009E5C45C2CABF75B2BA234690433EB458FC
:1033E000C8121036DA2EA05941E6D3DB8BD0F4593F
:1033F000207DFF69F293E69DCE78C50AE583542FC0
:10340000C33329566046CAE3D2D0E281D499E10D94
:103410003F85716ED93D2ACD8D356D5BF18B49D8D5
:10342000C4DD37622EE9DB70247D19148432908765
:10343000BFB4D9A2C4AA1517F0A003449EF2AAC62D
:10344000F21B36B1AF6DD2EDFC37296AF900AF2A15
:10345000E419A268346C4276FBB7CC8A722A0792D0
:1034600006F3DC2F036B234E88CB7AA87210A65587
:10347000EE5EEC69C9E42FA7578B9CD0F3BD835156
:103480003ACD2707F181CF8AB4FE79129C189A9819
:1034900038CC86E0A36E13A930A1B90FBD5D4B7186
:1034A00016C31D0EFD143F6AAD864736E19F2C5AA8
:1034B0001C3D7431B3BF77CBC00180202725CCE3FE
:1034C0007C65C1D2609B0A4CD2FA43AB13EC833DBE
:1034D000A000FA7254A6760BC75C741C08090CBDD8
:1034E00014F8A0BCC90ECD7CD8FB824E0D323BC473
:1034F0008A883DB9AF8F3F7BC8D1039535CDEF9D0D
:1035000023EAB269D7DD15C9597B1363959DF17321
:103510007A90A83CBAF70956DE2C93545F86BEDE3B
:1035200001F75CB277C1D03E083B85314070EBE8D3
:10353000BD88A110F0B017DDA09A3CEB73530B0FC0
:103540000E3CC83B79B13DBD2B684C920597173FA7
:10355000375C38153760F2A6DFE64E7E435D3437C0
:10356000FE8BA3D48F60FC03C1DFEE73086311AB45
:103570001E03D6AD47DF6FA0947E492E5386E852D6
:10358000B626AE938232A474DE534F6991CA6306A5
:10359000C1DD53C625F981AB65E66C669FDFADE200
:1035A000D6CD006F8B5D0A6823DD53DD0797555735
:1035B0009092A7049B38311BE6E18E887B57DA4353
:1035C0006170B820D333A5AF00D120D057D159D3E3
:1035D00072F4C00F11583A96D6CD006F8B5D0A6811
:1035E0003B9C9F0615EB3A994B26BC7170919A5CF7
:1035F000343FAA3EA7639E75E9037239D534A955B5
:103600002492F0071B9FE1256FE477452B57616CEF
:103610002D765A13A51A67FA149021C78E12F583D6
:10362000DE386A7326E3852BCA8A9D963A1BDD68CD
:1036300094DB751FC605C5DCCD541B64775D2B89F3
:1036400034E29A79EF358711D033A3A4BB0069F532
:1036500004BA5051CFAC99C4C0C9DB2C18D42F7A0E
:1036600098FCFF1B6BF73810F29E90BC2F7912D597
:103670003CE2BC9A82922A35F80960F462EFB09677
:10368000C437F4806AB9860A4C62D8D3219D350BC1
:10369000977C95623AFA76E5D4B0ACE1E72BDF8F00
:1036A0008F1C426941040D2F5D56B1AB9F7059804C
:1036B00013F70E5B7B104ADEF594768911761EC0F7
:1036C000ADB07241271B52FDBA45EC3F557D23003A
:1036D000FCD4D0D25320A964343FAA3EA7639E7580
:1036E000D19A55D6A002EEE8EB52B9D8B80EA992FD
:1036F000865E0BC61BA877E3E66BB0D49D71306C79
:103700008461FB458E5E687AB7B6E2160336E44202
:1037100015FA364E3BD97EB311705DC5D1CE220F5E
:10372000FE685F0B5EE61946FED5CEC532BEFC5E76
:103730005A5CB33E75AA22F822FD1341DEFA50EB23
:10374000780F88AAF98FD5BE378512B70B639C4FC7
:1037500025FB6FE212A2E65519333F8BD90EEC78A8
:10376000D95F4AF75F2E71A7991757745FA6526900
:1037700034FC28E26755131815CA18A312CA0B7136
:10378000963F3B72C884CE42AD82DF8FD29F9A298A
:1037900037CAB79F3A850535B392411F94BF6CEE87
:1037A000E54CBE24664852D9BC1EC256E7214F2CB8
:1037B000BBDFB7AA075565C78B624A7F5520CA127F
:1037C00003A7AFD31AD4AC9CFB3F4911CE7D9A8599
:1037D000560A2157ACF19A72A0029B3A20C94DCFEC
:1037E0002C1ECCE6DDF9DB9D1E12F30EF6F655F429
:1037F00092198970741B87E129EA7500AB0368A6EA
:103800001F4F713BEB176F9797D9F10DEE49FE1FD4
:10381000A8A1B57F21FAF3D0D7270D7B1C5BAB564F
:1038200021FA61C717599C66E924FD267FA6775ABD
:10383000E4274D4359A76EBE71ED7B8C30B8221042
:10384000336EB9F963CEDC97B921D7EBB12BDF909A
:10385000720AB475E4B34B263A5FC1AD65114A4DA7
:10386000D3E43CA2FC6449D9107B044AFECE5A59E9
:10387000AF997F6FC7A65740E025C36643C4B01C0D
:10388000A7B2E78BF13A1B4EC2D27278969C24A65F
:103890005228ED837287390FC4A883F3AFB49757CA
:1038A0004AEDD5BE28DD0516B67AB088AEED3727CD
:1038B000BF3D5BE32D344ABC96A252A6671A4FAABD
:1038C00045393840C38BCD98541A370A4537FED551
:1038D000FAF7A1C8D25BD45E5D3108439FC84B7034
:1038E000FD6D1DD84843858EA7723B5D2B4D7E5ED6
:1038F000E7C03D1D37FDCF18400AB26A75572F3516
:103900007229DAAF7EA1EDADEDD700844FBA79FC14
:1039100048D014B6F2DB968995839640D9D3AFE0B0
:103920005E0AA606BBDF185DDD4A48491373661AB6
:103930006809C5C38F4CAAF13C099FB1192D8513A5
:10394000BDD4DFF8900AACB42C56CFE54F0CB3C30E
:103950007714B472CAE9D192ED6A053C3D6ACD672D
:103960008473A902A68AE6504377C02CB0A0E3274F
:10397000F1FD4EC8B210D4714D59B905DBBD04F646
:103980000A8D28F3651C756F88CD8FD570C07403C0
:103990004033FDD75D99982EBB4E702D82FD4D882A
:1039A0003CA8ED8E5D5C30275F69DB3822A9356B62
:1039B000C6FBA3E13345B864EC259AB6A9476F78F6
:1039C00000885A89622CA1FE59C08A6C575EF7D0D4
:1039D0002F753107842F0CAE007342E1AD790F5182
:1039E00035359E53B0D00A8543277932F94264A712
:1039F00002BAEA8C40600EF52BDB8ACA79D2F091CC
:103A00008DD054D95EDA08FBA343A8992177DF64EF
:103A1000092DC2E047E31001E1A7E28CA2A9A3FBB4
:103A2000561DEF666F111F405BA0C207177985EF27
:103A300035ACD3882308FEE29AEA2E501E05B4471F
:103A4000EC9347683FD632B079ED7228C28779622D
:103A50003A04105789E2FC16C93921939AC382EBC4
:103A6000C3295B42D48C9AB17FE05D833E5E2DDA40
:103A7000F6F4DE88AD28332E4F0E11E9C51100D5BE
:103A8000F45729F0E1BC5F790D50AEA091B850EB2E
:103A9000E0BF2D9838DA1C5704084DC53807A81325
:083AA00048AB50006DD4DE3686
:00000001FF
